{"message":"invalid password","level":"error"}
{"message":"invalid password","level":"error"}
{"message":"invalid password","level":"error"}
{"message":"invalid password","level":"error"}
{"message":"invalid password","level":"error"}
{"message":"invalid password","level":"error"}
